…
``` r
library(tidytext)

philoctetes <- perseus_catalog %>% 
  filter(group_name == "Sophocles",
         label == "Philoctetes",
         language == "grc") %>% 
  pull(urn) %>%
  get_perseus_text()

philoctetes %>% 
  unnest_tokens(word, text) %>% 
  count(word, sort = TRUE)
#> # A tibble: 3,667 x 2
#>           word     n
#>          <chr> <int>
#>  1 νεοπτόλεμος   164
#>  2  φιλοκτήτης   141
#>  3         καὶ   128
#>  4           ὦ   119
#>  5          δʼ   118
#>  6         γὰρ    90
#>  7        ἀλλʼ    86
#>  8          τί    77
#>  9          μʼ    74
#> 10        πρὸς    70
#> # ... with 3,657 more rows
```
…
