rperseus Vignette • rperseus
…
A snapshot of available authors:

library(tidyverse)
count(perseus_catalog, groupname, sort = TRUE)

## # A tibble: 122 x 2
##                      groupname     n
##                          <chr> <int>
##  1                    Libanius   103
##  2                       Galen    95
##  3                  Augustinus    63
##  4                 Hippocrates    53
##  5                      Cicero    44
##  6 Catenae (Novum Testamentum)    33
##  7                      Lysias    33
##  8               Philo Judaeus    31
##  9                       Plato    31
## 10                   Isocrates    30
## # ... with 112 more rows
…
