Get a primary text by URN. — get_perseus_text • rperseus
…
#>  8         ἐσσυμένως ὤρουσεν ἀπ᾽ ἀθανάτοιο καρήνου,
#>  9  σείσασ᾽ ὀξὺν ἄκοντα: μέγας δ᾽ ἐλελίζετ᾽ Ὄλυμπος
#> 10      δεινὸν ὑπὸ βρίμης γλαυκώπιδος: ἀμφὶ δὲ γαῖα
#> 11       σμερδαλέον ἰάχησεν: ἐκινήθη δ᾽ ἄρα πόντος,
#> 12     κύμασι πορφυρέοισι κυκώμενος: ἔκχυτο δ᾽ ἅλμη
#> 13        ἐξαπίνης: στῆσεν δ᾽ Ὑπερίονος ἀγλαὸς υἱὸς
#> 14       ἵππους ὠκύποδας δηρὸν χρόνον, εἰσότε κούρη
#> 15         εἵλετ᾽ ἀπ᾽ ἀθανάτων ὤμων θεοείκελα τεύχη
#> 16          Παλλὰς Ἀθηναίη: γήθησε δὲ μητίετα Ζεύς.
#> 17     καὶ σὺ μὲν οὕτω χαῖρε, Διὸς τέκος αἰγιόχοιο:
#> 18     αὐτὰρ ἐγὼ καὶ σεῖο καὶ ἄλλης μνήσομ᾽ ἀοιδῆς.
#> # ... with 6 more variables: urn <chr>, group_name <chr>, label <chr>,
#> #   description <chr>, language <chr>, section <int>
get_perseus_text("urn:cts:latinLit:stoa0215b.stoa003.opp-lat1")
#> # A tibble: 69 x 7
#>                                               text
#>                                              <chr>
#>  1 f Tibique, Domine, celsum Cherubim dicatum est,
#>  2             et illa moles quadriformis machinae
#>  3              te sempiterno confitentur carmine.
#>  4                et nos imago consonantis cantici
#>  5                 amen sonamus, alleluia dicimus.
#>  6             Te septem primi deprecantur angeli,
#>  7            ceu ciuitatis septem principes uiri,
#>  8             solio propinqui, ianitores proximi.
#>  9                et nos imago consonantis cantici
#> 10                 amen sonamus, alleluia dicimus.
#> # ... with 59 more rows, and 6 more variables: urn <chr>, group_name <chr>,
#> #   label <chr>, description <chr>, language <chr>, section <int>
…
